EDA of 100-Year Storm Flood Risk from DataSF
…
mapview(flood)

There is a different dataset on DataSF called “100-Year Storm Flood
Elevations”.

flood_elev <- read_sf("100-Year Storm Flood Elevations (December 2024)_20260504")
flood_elev

## Simple feature collection with 1450 features and 5 fields
## Geometry type: POLYGON
## Dimension:     XY
## Bounding box:  xmin: -122.5097 ymin: 37.70864 xmax: -122.3856 ymax: 37.80851
## Geodetic CRS:  WGS 84
## # A tibble: 1,450 × 6
##    contourmin contourmax orig_fid shape_leng shape_area
##         <dbl>      <dbl>    <dbl>      <dbl>      <dbl>
##  1        389        390        1       33.6       34.4
##  2        390        391        2      212.      3184. 
##  3        390        391        2      276.      4419. 
##  4        391        392        3      569.      5389. 
##  5        391        392        3      330.      6151. 
##  6        392        393        4       60.6      125. 
##  7        392        393        4     1254.     43618. 
##  8          3          4       14      412.      6138. 
##  9         13         14      149     1241.     12964. 
## 10        393        394        5      423.      2204. 
## # ℹ 1,440 more rows
## # ℹ 1 more variable: geometry <POLYGON [°]>
…
